Text Analytics
…
#Words that are present in atleast 100 documents and in more than 5 businesses
word_summaries_filtered <- word_summaries %>%
  filter(reviews >= 100, businesses >= 5)
#word_summaries_filtered

#Positive words -  from the filtered list
word_summaries_filtered %>%
  arrange(desc(average_stars))

## # A tibble: 815 x 5
##         term businesses reviews  uses average_stars
##        <chr>      <int>   <int> <int>         <dbl>
##  1     spice        471     571   571      3.788091
##  2     split        430     511   511      3.780822
##  3      tell        901    1316  1316      3.779635
##  4    taking        546     726   726      3.763085
##  5   takeout        462     566   566      3.761484
##  6   excited        503     636   636      3.761006
##  7       mix        472     599   599      3.759599
##  8      show        458     575   575      3.758261
##  9       fr        427     531   531      3.755179
## 10 employees        455     571   571      3.749562
## # ... with 805 more rows

#Negative words - from filtered list
word_summaries_filtered %>%
  arrange(average_stars)

## # A tibble: 815 x 5
##           term businesses reviews  uses average_stars
##          <chr>      <int>   <int> <int>         <dbl>
##  1 outstanding        516     632   632      3.514241
##  2       curry        655     855   855      3.520468
##  3        rude        571     714   714      3.522409
##  4        game        407     502   502      3.529880
##  5        glad        634     825   825      3.530909
##  6      entire        564     738   738      3.533875
##  7        ribs        519     630   630      3.534921
##  8      mostly        431     530   530      3.535849
##  9     phoenix        494     612   612      3.535948
## 10         yum        474     595   595      3.536134
## # ... with 805 more rows

#Positive and Negative words as per AFINN
AFINN <- sentiments %>%
  filter(lexicon == "AFINN") %>%
  select(term = word, afinn_score = score)

words_afinn <- word_summaries_filtered %>%
  inner_join(AFINN)

words_afinn

## # A tibble: 94 x 6
##         term businesses reviews  uses average_stars afinn_score
##        <chr>      <int>   <int> <int>         <dbl>       <int>
##  1   amazing       2326    4733  4733      3.635115           4
##  2   awesome       1621    2887  2887      3.634222           4
##  3     awful        417     505   505      3.540594          -3
##  4       bad       1974    3860  3860      3.664508          -3
##  5 beautiful        596     792   792      3.705808           3
##  6      best       2982    7471  7471      3.657743           3
##  7    better       2402    5238  5238      3.660176           2
##  8       big       1696    3048  3048      3.668635           1
##  9      care        772    1101  1101      3.712080           2
## 10    chance        506     656   656      3.612805           2
## # ... with 84 more rows
…
